{
	"type": "NetworkGraph",
	"version": "",
	"revision": null,
	"nodes_data": [
		{{ range .Site.RegularPages }}

			{{ $page := . }}
			{

				"node": "{{ $page.Title }}",
				"url": "{{ $page.Permalink }}",
				"categories": [
					{{ range ($page.GetTerms "categories") }}
                		{{ .LinkTitle }},
        			{{ end }}
				],
				"tags": [
					{{ range ($page.GetTerms "tags") }}
                		{{ .LinkTitle }},
        			{{ end }}
				],
				"linksto": [
					{{ range .Params.linkedArticles}}
					{{ $linkedpage := $page.GetPage . }}
						"{{ $linkedpage.Title }}",
					{{ end }}
				]
			}
		{{ end }}
	],
	"links":[
		{{ range .Site.RegularPages }}

			{{ $page := . }}
				{{ range .Params.linkedArticles}}
					{{ $linkedpage := $page.GetPage . }}
					{"{{ $page.Title }}","{{ $linkedpage.Title }}"}
				{{ end }}
		{{ end }}
	]

}
